{
  "collectionName": "components_products_server_locations",
  "info": {
    "displayName": "Server_locations",
    "icon": "pin"
  },
  "options": {},
  "attributes": {
    "name": {
      "type": "string",
      "required": true
    }
  }
}
