{
  "kind": "singleType",
  "collectionName": "settings",
  "info": {
    "singularName": "setting",
    "pluralName": "settings",
    "displayName": "Settings",
    "description": ""
  },
  "options": {
    "draftAndPublish": false
  },
  "pluginOptions": {
    "i18n": {
      "localized": true
    }
  },
  "attributes": {
    "favicons": {
      "type": "media",
      "multiple": true,
      "required": true,
      "allowedTypes": [
        "images"
      ],
      "pluginOptions": {
        "i18n": {
          "localized": false
        }
      }
    },
    "seo": {
      "type": "component",
      "repeatable": false,
      "pluginOptions": {
        "i18n": {
          "localized": true
        }
      },
      "component": "seo.default-seo",
      "required": true
    },
    "payment_provider": {
      "pluginOptions": {
        "i18n": {
          "localized": false
        }
      },
      "type": "enumeration",
      "enum": [
        "STRIPE"
      ],
      "default": "STRIPE",
      "required": true
    },
    "stripe_secret_key": {
      "pluginOptions": {
        "i18n": {
          "localized": false
        }
      },
      "type": "string"
    },
    "mapbox_public_key": {
      "pluginOptions": {
        "i18n": {
          "localized": false
        }
      },
      "type": "string"
    },
    "currencies": {
      "pluginOptions": {
        "i18n": {
          "localized": false
        }
      },
      "type": "customField",
      "required": true,
      "options": [
        "AED",
        "AFN",
        "ALL",
        "AMD",
        "ANG",
        "AOA",
        "ARS",
        "AUD",
        "AWG",
        "AZN",
        "BAM",
        "BBD",
        "BDT",
        "BGN",
        "BHD",
        "BIF",
        "BMD",
        "BND",
        "BOB",
        "BRL",
        "BSD",
        "BTN",
        "BWP",
        "BYN",
        "BZD",
        "CAD",
        "CDF",
        "CHF",
        "CLP",
        "CNY",
        "COP",
        "CRC",
        "CUC",
        "CUP",
        "CVE",
        "CZK",
        "DJF",
        "DKK",
        "DOP",
        "DZD",
        "EGP",
        "ERN",
        "ETB",
        "EUR",
        "FJD",
        "FKP",
        "GBP",
        "GEL",
        "GHS",
        "GIP",
        "GMD",
        "GNF",
        "GTQ",
        "GYD",
        "HKD",
        "HNL",
        "HRK",
        "HTG",
        "HUF",
        "IDR",
        "ILS",
        "INR",
        "IQD",
        "IRR",
        "ISK",
        "JMD",
        "JOD",
        "JPY",
        "KES",
        "KGS",
        "KHR",
        "KMF",
        "KPW",
        "KRW",
        "KWD",
        "KYD",
        "KZT",
        "LAK",
        "LBP",
        "LKR",
        "LRD",
        "LSL",
        "LYD",
        "MAD",
        "MDL",
        "MGA",
        "MKD",
        "MMK",
        "MNT",
        "MOP",
        "MRO",
        "MRU",
        "MUR",
        "MVR",
        "MWK",
        "MXN",
        "MYR",
        "MZN",
        "NAD",
        "NGN",
        "NIO",
        "NOK",
        "NPR",
        "NZD",
        "OMR",
        "PAB",
        "PEN",
        "PGK",
        "PHP",
        "PKR",
        "PLN",
        "PYG",
        "QAR",
        "RON",
        "RSD",
        "RUB",
        "RWF",
        "SAR",
        "SBD",
        "SCR",
        "SDG",
        "SEK",
        "SGD",
        "SHP",
        "SLL",
        "SOS",
        "SRD",
        "SSP",
        "STD",
        "STN",
        "SVC",
        "SYP",
        "SZL",
        "THB",
        "TJS",
        "TMT",
        "TND",
        "TOP",
        "TRY",
        "TTD",
        "TWD",
        "TZS",
        "UAH",
        "UGX",
        "USD",
        "UYU",
        "UZS",
        "VEF",
        "VES",
        "VND",
        "VUV",
        "WST",
        "XAF",
        "XCD",
        "XOF",
        "XPF",
        "YER",
        "ZAR",
        "ZMW"
      ],
      "customField": "plugin::multi-select.multi-select"
    },
    "default_currency": {
      "pluginOptions": {
        "i18n": {
          "localized": true
        }
      },
      "type": "enumeration",
      "enum": [
        "AED",
        "AFN",
        "ALL",
        "AMD",
        "ANG",
        "AOA",
        "ARS",
        "AUD",
        "AWG",
        "AZN",
        "BAM",
        "BBD",
        "BDT",
        "BGN",
        "BHD",
        "BIF",
        "BMD",
        "BND",
        "BOB",
        "BRL",
        "BSD",
        "BTN",
        "BWP",
        "BYN",
        "BZD",
        "CAD",
        "CDF",
        "CHF",
        "CLP",
        "CNY",
        "COP",
        "CRC",
        "CUC",
        "CUP",
        "CVE",
        "CZK",
        "DJF",
        "DKK",
        "DOP",
        "DZD",
        "EGP",
        "ERN",
        "ETB",
        "EUR",
        "FJD",
        "FKP",
        "GBP",
        "GEL",
        "GHS",
        "GIP",
        "GMD",
        "GNF",
        "GTQ",
        "GYD",
        "HKD",
        "HNL",
        "HRK",
        "HTG",
        "HUF",
        "IDR",
        "ILS",
        "INR",
        "IQD",
        "IRR",
        "ISK",
        "JMD",
        "JOD",
        "JPY",
        "KES",
        "KGS",
        "KHR",
        "KMF",
        "KPW",
        "KRW",
        "KWD",
        "KYD",
        "KZT",
        "LAK",
        "LBP",
        "LKR",
        "LRD",
        "LSL",
        "LYD",
        "MAD",
        "MDL",
        "MGA",
        "MKD",
        "MMK",
        "MNT",
        "MOP",
        "MRO",
        "MRU",
        "MUR",
        "MVR",
        "MWK",
        "MXN",
        "MYR",
        "MZN",
        "NAD",
        "NGN",
        "NIO",
        "NOK",
        "NPR",
        "NZD",
        "OMR",
        "PAB",
        "PEN",
        "PGK",
        "PHP",
        "PKR",
        "PLN",
        "PYG",
        "QAR",
        "RON",
        "RSD",
        "RUB",
        "RWF",
        "SAR",
        "SBD",
        "SCR",
        "SDG",
        "SEK",
        "SGD",
        "SHP",
        "SLL",
        "SOS",
        "SRD",
        "SSP",
        "STD",
        "STN",
        "SVC",
        "SYP",
        "SZL",
        "THB",
        "TJS",
        "TMT",
        "TND",
        "TOP",
        "TRY",
        "TTD",
        "TWD",
        "TZS",
        "UAH",
        "UGX",
        "USD",
        "UYU",
        "UZS",
        "VEF",
        "VES",
        "VND",
        "VUV",
        "WST",
        "XAF",
        "XCD",
        "XOF",
        "XPF",
        "YER",
        "ZAR",
        "ZMW"
      ],
      "default": "EUR"
    },
    "paypal_client_id": {
      "pluginOptions": {
        "i18n": {
          "localized": false
        }
      },
      "type": "string"
    },
    "google_tag_id": {
      "pluginOptions": {
        "i18n": {
          "localized": false
        }
      },
      "type": "string"
    },
    "provide_support_script": {
      "pluginOptions": {
        "i18n": {
          "localized": false
        }
      },
      "type": "text"
    },
    "cookies": {
      "type": "component",
      "repeatable": true,
      "pluginOptions": {
        "i18n": {
          "localized": true
        }
      },
      "component": "settings.cookie",
      "required": true
    },
    "paypal_secret": {
      "pluginOptions": {
        "i18n": {
          "localized": false
        }
      },
      "type": "string"
    },
    "paypal_webhook_id": {
      "pluginOptions": {
        "i18n": {
          "localized": false
        }
      },
      "type": "string"
    }
  }
}
