{
  "collectionName": "components_elements_map_markers",
  "info": {
    "displayName": "Map_marker",
    "icon": "cube",
    "description": ""
  },
  "options": {},
  "attributes": {
    "name": {
      "type": "string",
      "required": true
    },
    "latitude": {
      "type": "float",
      "required": true
    },
    "longitude": {
      "type": "float",
      "required": true
    },
    "color": {
      "type": "customField",
      "regex": "^#([A-Fa-f0-9]{6}|[A-Fa-f0-9]{3})$",
      "customField": "plugin::color-picker.color"
    },
    "link": {
      "type": "component",
      "repeatable": false,
      "component": "elements.link"
    }
  }
}
