{
  "kind": "collectionType",
  "collectionName": "referrals",
  "info": {
    "singularName": "referral",
    "pluralName": "referrals",
    "displayName": "Referral",
    "description": ""
  },
  "options": {
    "draftAndPublish": true
  },
  "pluginOptions": {},
  "attributes": {
    "name": {
      "type": "string",
      "required": true
    },
    "tag": {
      "type": "uid",
      "targetField": "name",
      "required": true
    },
    "percentage": {
      "type": "integer",
      "required": true,
      "default": 2,
      "min": 0,
      "max": 100
    },
    "hits": {
      "type": "integer",
      "required": true,
      "min": 0
    },
    "orders": {
      "type": "relation",
      "relation": "oneToMany",
      "target": "api::order.order",
      "mappedBy": "referral"
    },
    "benefits": {
      "type": "component",
      "repeatable": true,
      "component": "referral.benefits"
    }
  }
}
